// Jest Snapshot v1, https://goo.gl/fbAQLP

exports[`renders correctly 1`] = `
<View
  style={
    Object {
      "flexDirection": "row",
      "flexWrap": "wrap",
    }
  }
>
  <Text
    onPress={[Function]}
  >
    <Text
      onPress={[Function]}
      style={
        Object {
          "fontWeight": "bold",
        }
      }
    >
      @
      someUser
    </Text>
     accepted your bid of 
    <Text
      style={
        Object {
          "fontWeight": "bold",
        }
      }
    >
      100
       
      points
    </Text>
     
    <Text>
      <Text>
        for 
      </Text>
      <Text
        style={
          Object {
            "color": "#444",
            "fontWeight": "bold",
          }
        }
      >
        some title
      </Text>
    </Text>
  </Text>
</View>
`;
